######################################################################
# Sun elves loyalists rebels. Wants the clergy to be loyal to the elves only.
######################################################################
artificer_duelists_rebels = {

	color = { 255 0 0 }

	area = nation 					# Sticks to provinces of their nation
	government = any
	religion = bulwari_sun_cult
	defection = none				# Will not defect
	independence = none				# Does not strive for independence
	unit_transfer = no
	gfx_type = culture_owner
	will_relocate = no
	
	resilient = no
	reinforcing = no
	general = yes
	smart = no
	
	artillery = 0
	infantry = 1
	cavalry = 0
	
	morale = 3

	# Possible handle actions
	handle_action_negotiate = no
	handle_action_stability = no
	handle_action_build_core = no
	handle_action_send_missionary = no		
	
	# The rebel type with the highest modifier for this province gets picked
	spawn_chance = {
		factor = 0
	}
 
 	# This is checked for EACH province in the Area of Operations
	movement_evaluation = {
		factor = 0
	}
 
 	# Province Scope
 	siege_won_trigger = { }
	siege_won_effect = { }
	
	# Country scope
	can_negotiate_trigger = {
		always = no
	}
	
	# Country scope
	can_enforce_trigger = {
		always = no
	}
	
	# Localisation for their demands
	demands_description = "duelists_demand"
	
	# Country Scope	
	demands_enforced_effect = { }
}
