
namespace = centaur

#Horde submission
country_event = {
	id = centaur.1
	title = centaur.1.t
	desc = centaur.1.d
	picture = RELIGION_eventPicture

	is_triggered_only = yes
	
	trigger = {
		NOT = { has_country_flag = centaur_debug_subjugation }
		FROM = { has_country_modifier = centaur_administration }
	}
	
	immediate = {
		set_country_flag = centaur_debug_subjugation
	}
	
	option = {
		name = centaur.1.a
		ai_chance = { factor = 1 }
		hidden_effect = { clr_country_flag = centaur_debug_subjugation }
		add_prestige = -25
		add_country_modifier = {
			name = subjugated_horde
			duration = -1
		}
		if = {
			limit = { FROM = { ai = yes } }
			every_subject_country = {
				limit = { has_country_modifier = subjugated_horde }
				FROM = {
					create_subject = {
						subject_type = centaur_follower
						subject = PREV
					}
				}
			}
		}
		FROM = {
			create_subject = {
				subject_type = centaur_follower
				subject = ROOT
			}
		}
	}
}

#Ai declare war
country_event = {
	id = centaur.2
	title = centaur.2.t
	desc = centaur.2.d
	picture = RELIGION_eventPicture
	
	mean_time_to_happen = {
		months = 3
	}

	trigger = {
		has_country_modifier = centaur_administration
		is_subject = no
		is_at_war = no
		NOT = { num_of_subjects = 10 }
		any_known_country = {
			ROOT = {
				army_strength = {
					who = PREV
					value = 1
				}
			}
			has_reform =  centaur_horde
			NOT = { truce_with = ROOT }
			is_subject = no
			is_at_war = no
			ai = yes
			NOT = {
				border_distance = {
					who = ROOT
					distance = 50
				}
			}
		}
		ai = yes
	}
	
	option = {
		name = centaur.2.a
		ai_chance = { factor = 1 }
		add_manpower = 5
		if = {
			limit = { 
				OR = {
					num_of_loans = 1
					NOT = { treasury = 100 }
				}
			}
			add_treasury = 100
		}
		capital_scope = {
			cavalry = ROOT
			random = {
				chance = 75
				cavalry = ROOT
			}
			random = {
				chance = 35
				cavalry = ROOT
			}
			random = {
				chance = 15
				cavalry = ROOT
			}
			random = {
				chance = 10
				cavalry = ROOT
			}
		}
		random_known_country = {
			limit = {
				has_reform = centaur_horde
				ROOT = {
					army_strength = {
						who = PREV
						value = 1
					}
				}
				NOT = { truce_with = ROOT }
				is_subject = no
				is_at_war = no
				ai = yes
				NOT = {
					border_distance = {
						who = ROOT
						distance = 50
					}
				}
			}
			ROOT = {
				declare_war_with_cb = {
					 who = PREV
					 casus_belli = cb_centaur_pillage
				}
			}
		}
	}
}
##Setup event for centaur
country_event = {
	id = centaur.3
	title = centaur.3.t
	desc = centaur.3.d
	picture = GOOD_WITH_MONARCH_eventPicture
	
	fire_only_once = yes
	
	is_triggered_only = yes
	
	trigger = {
		always = yes
	}
	
	option = {
		name = centaur.3.a
		ai_chance = { factor = 1 }
		
		every_country = {
			limit = {
				culture_group = centaur
			}
			add_country_modifier = {
				name = centaur_horde_1
				duration = -1
			}
			random = {
				chance = 50
				add_ruler_personality = bold_fighter_personality
			}
			random = {
				chance = 50
				add_ruler_personality = conqueror_personality
			}
			random = {
				chance = 50
				add_ruler_personality = cruel_personality
			}
			if = {
				limit = { ai = yes }
				add_manpower = 10
				add_treasury = 400
			}
			else = {
				add_manpower = 5
				add_treasury = 200
			}
			if = {
				limit = { ai = yes }
				add_country_modifier = {
					name = centaur_pride_of_the_new_horde
					duration = 3650
				}
				set_ai_personality = {
					personality = ai_militarist
					locked = yes
				}
			}
			capital_scope = {
				PREV = {
					cavalry	= PREV
					cavalry	= PREV
					# cavalry	= PREV
					# cavalry	= PREV
					# cavalry	= PREV
				}
			}
			set_variable = {
				which = nbCharge
				value = 0
			}
			set_variable = {
				which = nbWarWon
				value = 0
			}
			set_variable = {
				which = nbChargeLose
				value = 0
			}
			set_variable = {
				which = totalBattle
				value = 0
			}
			set_variable = {
				which = nbBattleHuman
				value = 0
			}
			set_variable = {
				which = nbBattleDwarf
				value = 0
			}
			set_variable = {
				which = nbBattleElf
				value = 0
			}
			set_variable = {
				which = nbBattleOgre
				value = 0
			}
			set_variable = {
				which = nbBattleOrc
				value = 0
			}
			set_variable = {
				which = nbBattleGoblin
				value = 0
			}
			set_variable = {
				which = nbBattleGnome
				value = 0
			}
			set_variable = {
				which = nbBattleKobold
				value = 0
			}
			set_variable = {
				which = nbBattleHarimari
				value = 0
			}
			set_variable = {
				which = nbBattleHobgoblin
				value = 0
			}
		}
	}
}

#The Three Stallions of War
country_event = {
	id = centaur.9
	title = centaur.9.t
	desc = centaur.9.d
	picture = RELIGION_eventPicture
	
	is_triggered_only = yes

	trigger = {
		always = yes
	}
	
	option = {
		name = centaur.9.a
		ai_chance = { factor = 1 }
		define_general = {
			shock = 4
			fire = 3
			manuever = 5
			siege = 2
			name = "Tirek"
		}
		define_general = {
			shock = 6
			fire = 1
			manuever = 6
			siege = 3
			name = "Glitterhoof"
		}
		define_general = {
			shock = 7
			fire = 0
			manuever = 5
			siege = 2
			name = "Redmane Sparkle"
			female = yes
		}
	}
}

#The centaur wrath
country_event = {
	id = centaur.10
	title = centaur.10.t
	desc = centaur.10.d
	picture = RELIGION_eventPicture
	
	is_triggered_only = yes
	major = yes

	trigger = {
		always = yes
	}
	
	option = {
		name = centaur.10.a
		ai_chance = { factor = 1 }
		every_owned_province = {
			limit = {
				OR = {
					region = west_castanor_region
					region = inner_castanor_region
					region = south_castanor_region
				}
			}
			add_base_tax = -2
			add_base_production = -2
			add_base_manpower = -3
			add_devastation = 50
		}
		add_country_modifier = {
			name = the_centaur_wrath
			duration = -1
		}
		#TO DO : Event for cannor country : The Centaur Menace
	}
}

#The Burning Lance awaken
country_event = {
	id = centaur.11
	title = centaur.11.t
	desc = centaur.11.d
	picture = CONQUEST_eventPicture
	
	fire_only_once = yes
	
	mean_time_to_happen = {
		months = 1
	}

	trigger = {
		tag = I89
		NOT = { has_country_flag = centaur_no_zeal }
		num_of_owned_provinces_with = {
			value = 35
			superregion = bulwar_superregion
		}
	}
	
	option = {
		name = centaur.11.a
		ai_chance = { factor = 1 }
		hidden_effect = { set_country_flag = burning_spear_flag }
		add_faction = burning_spear
	}
}

#The Verdant Bliss Rise
country_event = {
	id = centaur.12
	title = centaur.12.t
	desc = centaur.12.d
	picture = CONQUEST_eventPicture
	
	fire_only_once = yes
	
	mean_time_to_happen = {
		months = 1
	}

	trigger = {
		tag = I89
		NOT = { has_country_flag = centaur_no_zeal }
		num_of_owned_provinces_with = {
			value = 25
			OR = {
				superregion = escann_superregion
				superregion = deepwoods_superregion
			}
		}
	}
	
	option = {
		name = centaur.12.a
		ai_chance = { factor = 1 }
		hidden_effect = { set_country_flag = verdant_bliss_flag }
		add_faction = verdant_bliss
	}
}

#The Tiger Bane
country_event = {
	id = centaur.13
	title = centaur.13.t
	desc = centaur.13.d
	picture = CONQUEST_eventPicture
	
	fire_only_once = yes
	
	mean_time_to_happen = {
		months = 1
	}

	trigger = {
		tag = I89
		NOT = { has_country_flag = centaur_no_zeal }
		num_of_owned_provinces_with = {
			value = 30
			OR = {
				superregion = rahen_superregion
				superregion = south_haless_superregion
			}
		}
	}
	
	option = {
		name = centaur.13.a
		ai_chance = { factor = 1 }
		hidden_effect = { set_country_flag = tiger_bane_flag }
		add_faction = tiger_bane
	}
}

#### Every "ask territory" event is now handled in on_province_owner_change on_action

# #The Burning Spear ask territory
# country_event = {
	# id = centaur.14
	# title = centaur.14.t
	# desc = centaur.14.d
	# picture = CONQUEST_eventPicture
	
	# mean_time_to_happen = {
		# months = 1
	# }

	# trigger = {
		# tag = I89
		# NOT = { has_country_flag = centaur_no_zeal }
		# has_faction = burning_spear
		# NOT = { has_country_flag = burning_spear_revolt }
		# bulwar_superregion = {
			# owned_by = ROOT
			# NOT = { has_province_modifier = centaur_burning_spear_territory }
		# }
	# }
	
	# option = {
		# name = centaur.14.a
		# ai_chance = { factor = 100 }
		# bulwar_superregion = {
			# limit = {
				# owned_by = ROOT
				# NOT = { has_province_modifier = centaur_burning_spear_territory }
			# }
			# add_province_modifier = {
				# name = centaur_burning_spear_territory
				# duration = -1
			# }
		# }
	# }
# }

# #The Verdant Bliss ask territory
# country_event = {
	# id = centaur.15
	# title = centaur.15.t
	# desc = centaur.15.d
	# picture = CONQUEST_eventPicture
	
	# mean_time_to_happen = {
		# months = 1
	# }

	# trigger = {
		# tag = I89
		# NOT = { has_country_flag = centaur_no_zeal }
		# has_faction = verdant_bliss
		# NOT = { has_country_flag = verdant_bliss_revolt }
		# OR = {
			# escann_superregion = {
				# owned_by = ROOT
				# NOT = { has_province_modifier = centaur_verdant_bliss_territory }
			# }
			# deepwoods_superregion = {
				# owned_by = ROOT
				# NOT = { has_province_modifier = centaur_verdant_bliss_territory }
			# }
		# }
	# }
	
	# option = {
		# name = centaur.15.a
		# ai_chance = { factor = 100 }
		# deepwoods_superregion = {
			# limit = {
				# owned_by = ROOT
				# NOT = { has_province_modifier = centaur_verdant_bliss_territory }
			# }
			# add_province_modifier = {
				# name = centaur_verdant_bliss_territory
				# duration = -1
			# }
		# }
		# escann_superregion = {
			# limit = {
				# owned_by = ROOT
				# NOT = { has_province_modifier = centaur_verdant_bliss_territory }
			# }
			# add_province_modifier = {
				# name = centaur_verdant_bliss_territory
				# duration = -1
			# }
		# }
	# }
# }

# #The Tiger Bane ask territory
# country_event = {
	# id = centaur.16
	# title = centaur.16.t
	# desc = centaur.16.d
	# picture = CONQUEST_eventPicture
	
	# mean_time_to_happen = {
		# months = 1
	# }

	# trigger = {
		# tag = I89
		# has_faction = tiger_bane
		# NOT = { has_country_flag = centaur_no_zeal }
		# NOT = { has_country_flag = tiger_bane_revolt }
		# OR = {
			# rahen_superregion = {
				# owned_by = ROOT
				# NOT = { has_province_modifier = centaur_tiger_bane_territory }
			# }
			# south_haless_superregion = {
				# owned_by = ROOT
				# NOT = { has_province_modifier = centaur_tiger_bane_territory }
			# }
		# }
	# }
	
	# option = {
		# name = centaur.15.a
		# ai_chance = { factor = 100 }
		# rahen_superregion = {
			# limit = {
				# owned_by = ROOT
				# NOT = { has_province_modifier = centaur_tiger_bane_territory }
			# }
			# add_province_modifier = {
				# name = centaur_tiger_bane_territory
				# duration = -1
			# }
		# }
		# south_haless_superregion = {
			# limit = {
				# owned_by = ROOT
				# NOT = { has_province_modifier = centaur_tiger_bane_territory }
			# }
			# add_province_modifier = {
				# name = centaur_tiger_bane_territory
				# duration = -1
			# }
		# }
	# }
# }

#Horde want to join us
country_event = {
	id = centaur.17
	title = centaur.17.t
	desc = centaur.1.d
	picture = RELIGION_eventPicture
	
	mean_time_to_happen = {
		years = 5
	}
	
	trigger = {
		tag = I89
		ai = yes
		NOT = { has_country_flag = centaur_no_zeal }
		any_neighbor_country = {
			has_country_modifier = centaur_administration
			is_subject = no
			is_at_war = no
			ai = yes
		}
	}
	
	option = {
		name = centaur.17.a
		random_neighbor_country = {
			limit = {
				has_country_modifier = centaur_administration
				is_subject = no
				is_at_war = no
				ai = yes
			}
			hidden_effect = {
				export_to_variable = {
					which = treasuryAvailable
					value = treasury
					who = THIS
				}
				export_to_variable = {
					which = manpowerAvailable
					value = manpower
					who = THIS
				}
				currency_effect = { currency=treasury takeFrom=THIS addTo=ROOT which=treasuryAvailable }
				currency_effect = { currency=manpower takeFrom=THIS addTo=ROOT which=manpowerAvailable }
			}
			every_owned_province = {
				add_core = ROOT
				cede_province = ROOT
			}
		}
	}
}

#The Raging Blizzard awaken
country_event = {
	id = centaur.18
	title = centaur.18.t
	desc = centaur.18.d
	picture = CONQUEST_eventPicture
	
	fire_only_once = yes
	
	mean_time_to_happen = {
		months = 1
	}

	trigger = {
		tag = I89
		NOT = { has_country_flag = centaur_no_zeal }
		num_of_owned_provinces_with = {
			value = 20
			OR = {
				superregion = gerudia_superregion
				region = alenic_frontier_region
				region = dragon_coast_region
			}
		}
	}
	
	option = {
		name = centaur.18.a
		ai_chance = { factor = 1 }
		hidden_effect = { set_country_flag = raging_blizzard_flag }
		add_faction = raging_blizzard
	}
}

#The Vine Tearer awaken
country_event = {
	id = centaur.19
	title = centaur.19.t
	desc = centaur.19.d
	picture = CONQUEST_eventPicture
	
	fire_only_once = yes
	
	mean_time_to_happen = {
		months = 1
	}

	trigger = {
		tag = I89
		NOT = { has_country_flag = centaur_no_zeal }
		num_of_owned_provinces_with = {
			value = 35
			NOT = { superregion = bulwar_superregion }
			continent = africa
		}
	}
	
	option = {
		name = centaur.19.a
		ai_chance = { factor = 1 }
		hidden_effect = { set_country_flag = vine_tearer_flag }
		add_faction = vine_tearer
	}
}

#The Rosen Rider awaken
country_event = {
	id = centaur.20
	title = centaur.20.t
	desc = centaur.20.d
	picture = CONQUEST_eventPicture
	
	fire_only_once = yes
	
	mean_time_to_happen = {
		months = 1
	}

	trigger = {
		tag = I89
		NOT = { has_country_flag = centaur_no_zeal }
		num_of_owned_provinces_with = {
			value = 35
			NOT = { region = alenic_frontier_region }
			NOT = { region = dragon_coast_region }
			superregion = western_cannor_superregion
		}
	}
	
	option = {
		name = centaur.20.a
		ai_chance = { factor = 1 }
		hidden_effect = { set_country_flag = rosen_rider_flag }
		add_faction = rosen_rider
	}
}

# #The Raging Blizzard ask territory
# country_event = {
	# id = centaur.21
	# title = centaur.21.t
	# desc = centaur.21.d
	# picture = CONQUEST_eventPicture
	
	# mean_time_to_happen = {
		# months = 1
	# }

	# trigger = {
		# tag = I89
		# NOT = { has_country_flag = centaur_no_zeal }
		# has_faction = raging_blizzard
		# NOT = { has_country_flag = raging_blizzard_revolt }
		# OR = {
			# gerudia_superregion = {
				# owned_by = ROOT
				# NOT = { has_province_modifier = centaur_raging_blizzard_territory }
			# }
			# alenic_frontier_region = {
				# owned_by = ROOT
				# NOT = { has_province_modifier = centaur_raging_blizzard_territory }
			# }
			# dragon_coast_region = {
				# owned_by = ROOT
				# NOT = { has_province_modifier = centaur_raging_blizzard_territory }
			# }
		# }
	# }
	
	# option = {
		# name = centaur.21.a
		# ai_chance = { factor = 100 }
		# gerudia_superregion = {
			# limit = {
				# owned_by = ROOT
				# NOT = { has_province_modifier = centaur_raging_blizzard_territory }
			# }
			# add_province_modifier = {
				# name = centaur_raging_blizzard_territory
				# duration = -1
			# }
		# }
		# alenic_frontier_region = {
			# limit = {
				# owned_by = ROOT
				# NOT = { has_province_modifier = centaur_raging_blizzard_territory }
			# }
			# add_province_modifier = {
				# name = centaur_raging_blizzard_territory
				# duration = -1
			# }
		# }
		# dragon_coast_region = {
			# limit = {
				# owned_by = ROOT
				# NOT = { has_province_modifier = centaur_raging_blizzard_territory }
			# }
			# add_province_modifier = {
				# name = centaur_raging_blizzard_territory
				# duration = -1
			# }
		# }
	# }
# }

# #The Vine Tearer ask territory
# country_event = {
	# id = centaur.22
	# title = centaur.22.t
	# desc = centaur.22.d
	# picture = CONQUEST_eventPicture
	
	# mean_time_to_happen = {
		# months = 1
	# }

	# trigger = {
		# tag = I89
		# NOT = { has_country_flag = centaur_no_zeal }
		# has_faction = vine_tearer
		# NOT = { has_country_flag = vine_tearer_revolt }
		# africa = {
			# owned_by = ROOT
			# NOT = { superregion = bulwar_superregion }
			# NOT = { has_province_modifier = centaur_vine_tearer_territory }
		# }
	# }
	
	# option = {
		# name = centaur.22.a
		# ai_chance = { factor = 100 }
		# africa = {
			# limit = {
				# owned_by = ROOT
				# NOT = { superregion = bulwar_superregion }
				# NOT = { has_province_modifier = centaur_vine_tearer_territory }
			# }
			# add_province_modifier = {
				# name = centaur_vine_tearer_territory
				# duration = -1
			# }
		# }
	# }
# }

# #The Rosen Rider ask territory
# country_event = {
	# id = centaur.23
	# title = centaur.23.t
	# desc = centaur.23.d
	# picture = CONQUEST_eventPicture
	
	# mean_time_to_happen = {
		# months = 1
	# }

	# trigger = {
		# tag = I89
		# NOT = { has_country_flag = centaur_no_zeal }
		# has_faction = rosen_rider
		# NOT = { has_country_flag = rosen_rider_revolt }
		# western_cannor_superregion = {
			# owned_by = ROOT
			# NOT = { region = alenic_frontier_region }
			# NOT = { region = dragon_coast_region }
			# NOT = { has_province_modifier = centaur_rosen_rider_territory }
		# }
	# }
	
	# option = {
		# name = centaur.23.a
		# ai_chance = { factor = 100 }
		# western_cannor_superregion = {
			# limit = {
				# owned_by = ROOT
				# NOT = { region = alenic_frontier_region }
				# NOT = { region = dragon_coast_region }
				# NOT = { has_province_modifier = centaur_rosen_rider_territory }
			# }
			# add_province_modifier = {
				# name = centaur_rosen_rider_territory
				# duration = -1
			# }
		# }
	# }
# }

#Direct control of the fed is not good
country_event = {
	id = centaur.24
	title = centaur.24.t
	desc = centaur.24.d
	picture = CONQUEST_eventPicture
	goto = triunic_rebel_province
	
	mean_time_to_happen = {
		years = 1
	}

	trigger = {
		ai = no
		has_country_modifier = centaur_administration
		OR = {
			northern_isles_region = {
				owned_by = ROOT
				culture_group = triunic
				NOT = { has_province_modifier = triunic_resistance }
			}
			southern_isles_region = {
				owned_by = ROOT
				culture_group = triunic
				NOT = { has_province_modifier = triunic_resistance }
			}
		}
	}
	
	immediate = {
		hidden_effect = {
			random_owned_province = {
				limit = {
					OR = {
						region = southern_isles_region
						region = northern_isles_region
					}
					culture_group = triunic
					NOT = { has_province_modifier = triunic_resistance }
				}
				save_event_target_as = triunic_rebel_province
			}
		}
	}
	
	option = {
		name = centaur.24.a
		ai_chance = { factor = 100 }
		event_target:triunic_rebel_province = {
			area = {
				limit = {
					owned_by = ROOT
					culture_group = triunic
					NOT = { has_province_modifier = triunic_resistance }
				}
				nationalist_rebels = 3
				add_permanent_province_modifier = {
					name = triunic_resistance
					duration = 3650
				}
				random_list = {
					33 = { add_base_tax = -1 }
					33 = { add_base_production = -1 }
					34 = { add_base_manpower = -1 }
				}
			}
		}
	}
	
	option = {
		name = centaur.24.b
		trigger = {
			event_target:triunic_rebel_province = {
				any_core_country = {
					NOT = { exists = yes }
				}
			}
			has_country_flag = centaur_special_cb
		}
		ai_chance = { factor = 100 }
		event_target:triunic_rebel_province = {
			random_core_country = {
				limit = { NOT = { exists = yes } }
				ROOT = {
					release = PREV
					create_subject = {
						subject_type = centaur_dominion
						subject = PREV
					}
				}
				hidden_effect = {
					change_religion = event_target:triunic_rebel_province
					change_government = republic
					add_government_reform = lake_republic
				}
			}
		}
	}
}



##################
## Background Events
##################
country_event = {
	id = centaur.100
	title = centaur.100.t
	desc = centaur.100.d
	picture = RELIGION_eventPicture
	
	hidden = yes
	
	trigger = {
		tag = I89
		NOT = { has_country_modifier = centaur_zeal_timer }
		NOT = { has_country_flag = centaur_no_zeal }
	}
	
	option = {
		name = centaur.100.a
		subtract_variable = { centaur_zeal = 1 }
		if = {
			limit = { NOT = { check_variable = { centaur_zeal = 1 } } }
			set_country_flag = centaur_no_zeal
			remove_country_modifier = centaur_unification_zeal
		}
		else = {
			add_country_modifier = {
				name = centaur_zeal_timer
				duration = 365
				hidden = yes
			}
		}
	}
}

# Duct tape for stupid AI
# country_event = {
	# id = centaur.101
	# title = centaur.101.t
	# desc = centaur.101.d
	# picture = RELIGION_eventPicture
	
	# hidden = yes
	
	# mean_time_to_happen = {
		# months = 6
	# }
	
	# trigger = {
		# tag = I89
		# is_at_war = no
		# NOT = { has_country_flag = centaur_no_zeal }
		# ai = yes
		# num_of_loans = 10
	# }
	
	# option = {
		# name = centaur.101.a
		# add_treasury = 2500
	# }
# }

#Build fort
country_event = {
	id = centaur.102
	title = centaur.102.t
	desc = centaur.102.d
	picture = RELIGION_eventPicture
	
	hidden = yes
	
	mean_time_to_happen = {
		months = 3
	}
	
	trigger = {
		tag = I89
		NOT = { has_country_flag = centaur_no_zeal }
		ai = yes
		is_at_war = no
		OR = {
			5123 = {
				owned_by = ROOT
				NOT = { has_fort_building_trigger = yes }
			}
			5131 = {
				owned_by = ROOT
				NOT = { has_fort_building_trigger = yes }
			}
			5074 = {
				owned_by = ROOT
				NOT = { has_fort_building_trigger = yes }
			}
			5060 = {
				owned_by = ROOT
				NOT = { has_fort_building_trigger = yes }
			}
			5044 = {
				owned_by = ROOT
				NOT = { has_fort_building_trigger = yes }
			}
			5117 = {
				owned_by = ROOT
				NOT = { has_fort_building_trigger = yes }
			}
			5109 = {
				owned_by = ROOT
				NOT = { has_fort_building_trigger = yes }
			}
		}
	}
	
	option = {
		name = centaur.102.a
		if = {
			limit = { 5123 = { owned_by = ROOT NOT = { has_fort_building_trigger = yes } } }
			5123 = { add_building = fort_15th }
		}
		if = {
			limit = { 5131 = { owned_by = ROOT NOT = { has_fort_building_trigger = yes } } } 
			5131 = { add_building = fort_15th }
		}
		if = {
			limit = { 5074 = { owned_by = ROOT NOT = { has_fort_building_trigger = yes } } } 
			5074 = { add_building = fort_15th }
		}
		if = {
			limit = { 5060 = { owned_by = ROOT NOT = { has_fort_building_trigger = yes } } } 
			5060 = { add_building = fort_15th }
		}
		if = {
			limit = { 5044 = { owned_by = ROOT NOT = { has_fort_building_trigger = yes } } } 
			5044 = { add_building = fort_15th }
		}
		if = {
			limit = { 5117 = { owned_by = ROOT NOT = { has_fort_building_trigger = yes } } } 
			5117 = { add_building = fort_15th }
		}
		if = {
			limit = { 5109 = { owned_by = ROOT NOT = { has_fort_building_trigger = yes } } } 
			5109 = { add_building = fort_15th }
		}
	}
}

#No exploit ya bastard
country_event = {
	id = centaur.103
	title = centaur.103.t
	desc = centaur.103.d
	picture = RELIGION_eventPicture
	
	hidden = yes
	
	trigger = {
		centaur_follower = 1
		NOT = { has_country_modifier = centaur_administration }
	}
	
	option = {
		name = centaur.103.a
		every_subject_country = {
			limit = { is_subject_of_type = centaur_follower }
			ROOT = { vassalize = PREV }
		}
	}
}