
namespace = corinite

# The Corinite Reformation
country_event = {
	id = corinite.1
	title = corinite.1.t
	desc = corinite.1.d
	picture = RELIGION_eventPicture
	
	major = yes
	fire_only_once = yes
	
	trigger = {
		capital_scope = { superregion = escann_superregion NOT = { region = alenic_reach_region } }
		NOT = { is_religion_enabled = corinite }
		religion = regent_court
		is_defender_of_faith = no	
		NOT = { has_reform = papacy_reform }
	#	reform_desire = 0.95
		#is_year = 1550
		#is age of greentide
		has_global_flag = "castellos_is_dead"
		any_owned_province = {
			can_have_center_of_reformation_trigger = {
				RELIGION = corinite
			}
		}
	}
	
	mean_time_to_happen = {
		months = 625 #625
		
		modifier = {
			factor = 0.4
			tag = B02 #Corintar
		}
		
		modifier = {
			factor = 0.5
			has_personal_deity = corin
		}
		
		modifier = {
			factor = 0.3
			OR = {
				capital_scope = { region = west_castanor_region}
				capital_scope = { region = south_castanor_region}
				capital_scope = { region = inner_castanor_region}
			}
			NOT = {
				OR = {
					culture_group = orcish
					culture_group = goblin
				}
			}
		}
		
		modifier = {
			factor = 0.6
			OR = {
				primary_culture = arbarani
				primary_culture = east_damerian
				primary_culture = gawedi
				primary_culture = vernman
				culture_group = escanni
			}
		}
		
		modifier = {
			factor = 0.75
			NOT = { num_of_cities = 10 }
		}
		# modifier = {
			# factor = 0.75
			# NOT = { num_of_cities = 2 }
		# }
		
		modifier = {
			factor = 0.75
			has_idea_group = innovativeness_ideas
		}
		modifier = {
			factor = 1.25
			has_idea_group = religious_ideas
		}
		modifier = {
			factor = 0.5
			num_of_rebel_controlled_provinces = 1
		}
		modifier = {
			factor = 2.0
			government = theocracy
		}
		modifier = {
			factor = 5
			OR = {
				tag = A74 #Nathalaire
				tag = B09 #House of Riches
				tag = B49 #Araionn
			}
		}
		modifier = {
			factor = 8
			OR = {
				culture_group = lencori	#cos they love Adean
				primary_culture = crownsman	#status quo was good for Ara money
			}
		}
		modifier = {
			factor = 10
			has_personal_deity = adean
		}
	}

	option = {
		name = "corinite.1.a"
		enable_religion = corinite
		random_owned_province = {
			limit = {
				can_have_center_of_reformation_trigger = {
					RELIGION = corinite
				}
			}
			change_religion = corinite
			add_reform_center = corinite
			add_permanent_province_modifier = {
				name = "religious_zeal_at_conv"
				duration = 9000
			}
		}
		capital_scope = {
			change_religion = corinite
			add_permanent_province_modifier = {
				name = "religious_zeal_at_conv"
				duration = 9000
			}
		}
		set_country_flag = "corinite_reformation" 
		
		hidden_effect = {
			every_country = {
				limit = {
					capital_scope = { continent = europe }
				}
				country_event = { id = corinite.2 days = 7300 }	#240 months aka 20 years #changed for testing, put it back to 7300
			}
			every_country = {
			#	limit = {
			#		capital_scope = { continent = europe }
			#	}
				country_event = { id = corinite.3 days = 7300 }
			}
			random_country = {
				limit = {
					capital_scope = { continent = europe }
					religion = corinite
				}
				country_event = { id = corins_circle.12 days = 1095 random = 365 } #Dominic of Gallowspeak
			}
			if = {
				limit = { exists = H36 }
				H36 = { country_event = { id = flavor_valorpoint.1 days = 1095 random = 365 } }
			}
		}
	}
}

# The Crimson Deluge
country_event = {
	id = corinite.2
	title = corinite.2.t
	desc = corinite.2.d
	picture = COMET_SIGHTED_eventPicture
	
	is_triggered_only = yes
	
	trigger = {
		is_religion_enabled = corinite
		any_owned_province = {
			OR = {
				region = alenic_frontier_region
				region = forlorn_vale_region
				region = esmaria_region
				region = east_dameshead_region
				region = the_borders_region
				superregion = escann_superregion
			}
		}
		NOT = { has_global_flag = crimson_deluge_is_over }
		# any_owned_province = {
			# can_have_center_of_reformation_trigger = {
				# RELIGION = corinite
			# }
		# }
	}
	
	mean_time_to_happen = {
		days = 1
	}
	
	immediate = {
		set_global_flag = crimson_deluge
		set_global_flag = crimson_deluge_is_actively_happening
		hidden_effect = {
			alenic_frontier_region = {
				add_permanent_province_modifier = {
					name = crimson_deluge_province_heavy
					duration = 3650
				}
			}
			forlorn_vale_region = {
				add_permanent_province_modifier = {
					name = crimson_deluge_province_heavy
					duration = 3650
				}
			}
			esmaria_region = {
				add_permanent_province_modifier = {
					name = crimson_deluge_province
					duration = 3650
				}
			}
			east_dameshead_region = {
				add_permanent_province_modifier = {
					name = crimson_deluge_province
					duration = 3650
				}
			}
			the_borders_region = {
				add_permanent_province_modifier = {
					name = crimson_deluge_province_heavy
					duration = 3650
				}
			}
			escann_superregion = {
				add_permanent_province_modifier = {
					name = crimson_deluge_province_heavy
					duration = 3650
				}
			}
		}
		hidden_effect = {
			capital_scope = {
				province_event = {
					id = corinite.4 
					days = 3650 
				}	#10 years later
			}
		}
	}

	#Rejection
	option = {
		name = "corinite.2.a"
		trigger = {
			religion = regent_court
		}
		ai_chance = {
			factor = 70
			modifier = {
				factor = 10
				has_personal_deity = adean
			}
			modifier = {
				factor = 5
				has_personal_deity = ara	#Adean's wife
			}
			modifier = {
				factor = 1.5
				ruler_has_personality = calm_personality
			}
			modifier = {
				factor = 1.5
				ruler_has_personality = careful_personality
			}
			modifier = {
				factor = 2
				ruler_has_personality = zealot_personality
			}
			modifier = {
				factor = 5
				OR = {
					tag = A74 #Nathalaire
					tag = B09 #House of Riches
					tag = B49 #Araionn
				}
			}
			modifier = {
				factor = 1.5
				OR = {
					capital_scope = { region = lencenor_region }
					capital_scope = { region = west_dameshead_region }
					capital_scope = { region = small_country_region }
					capital_scope = { region = dragon_coast_region }
					capital_scope = { region = damescrown_region }
					capital_scope = { region = esmaria_region }
				}
			}
		}
		add_stability = -2

		custom_tooltip = tooltip_remove_corin_personal_deity

		custom_tooltip = crimson_deluge_start_tooltip
	}
	
	#Accepting
	option = {
		name = "corinite.2.b"
		trigger = {
			religion = regent_court
		}
		ai_chance = {
			factor = 30
			modifier = {
				factor = 10
				has_personal_deity = corin
			}
			modifier = {
				factor = 100
				tag = B02
			}
			modifier = {
				factor = 5
				OR = {
					tag = B33	#Blademarches
					tag = B35	#Ancardia
					tag = A45	#Istralore
					tag = U16	#Ourdia
				}
			}
			modifier = {
				factor = 0
				tag = B58
			}
			modifier = {
				factor = 0
				government = theocracy
				NOT = { has_reform = magocracy_reform }
			}
			modifier = {
				factor = 0
				is_emperor = yes
				hre_religion_treaty = no
			}
			modifier = {
				factor = 3
				OR = {
					capital_scope = { region = the_borders_region }			#heaviest rains here and also promoted HRE League War
					capital_scope = { region = east_dameshead_region }
				}
			}
			modifier = {
				factor = 3
				OR = {
					capital_scope = { region = west_castanor_region }
					capital_scope = { region = inner_castanor_region }
					capital_scope = { region = south_castanor_region }
				}
				OR = {
					NOT = { culture_group = orcish }
					NOT = { culture_group = goblin }
				}
			}
			modifier = {
				factor = 0.25
				OR = {
					culture_group = elven
					culture_group = gnomish
				}
			}
			modifier = {
				factor = 0.5
				OR = {
					culture_group = lencori
					primary_culture = crownsman
					primary_culture = esmari
				}
			}
			modifier = {
				factor = 1.3
				OR = {
					primary_culture = vernman	#Heroic cultures
					primary_culture = derannic
					primary_culture = arbarani
					culture_group = alenic
				}
			}
			modifier = {
				factor = 2
				personality = ai_militarist
			}
			modifier = {
				factor = 1.5
				ruler_has_personality = free_thinker_personality
			}
			modifier = {
				factor = 1.5
				ruler_has_personality = naive_personality
			}
			modifier = {
				factor = 2
				ruler_has_personality = sinner_personality
			}
			modifier = {
				factor = 2
				ruler_has_personality = tolerant_personality
			}
			modifier = {
				factor = 2
				ruler_has_personality = pious_personality
			}
		}
		change_religion = corinite
		random_owned_province = {
			limit = {
				can_have_center_of_reformation_trigger = {
					RELIGION = corinite
				}
			}
			change_religion = corinite
			add_reform_center = corinite
			add_permanent_province_modifier = {
				name = "religious_zeal_at_conv"
				duration = 9000
			}
		}
		capital_scope = {
			change_religion = corinite
			add_permanent_province_modifier = {
				name = "religious_zeal_at_conv"
				duration = 9000
			}
		}
		add_country_modifier = {
			name = "conversion_zeal"
			duration = 3650
		}
		reduce_stability_or_adm_power = yes

		custom_tooltip = crimson_deluge_start_tooltip
	}
	option = {
		name = "corinite.2.c"
		trigger = {
			NOT = { religion_group = cannorian }
		}
		reduce_stability_or_adm_power = yes

		custom_tooltip = crimson_deluge_start_tooltip
	}
	option = {
		name = "corinite.2.e"
		ai_chance = {
			factor = 1000
		}
		trigger = {
			religion = corinite
		}
		add_stability_or_adm_power = yes

		custom_tooltip = crimson_deluge_start_tooltip
	}
}

#notify others of the deluge
country_event = {
	id = corinite.3
	title = corinite.3.t
	desc = corinite.3.d
	picture = COMET_SIGHTED_eventPicture
	
	is_triggered_only = yes
	
	trigger = {
		any_owned_province = {
			continent = europe
		}
		OR = {
			NOT = { capital_scope = { continent = europe } }
			NOT = {
				any_owned_province = {
					OR = {
						region = alenic_frontier_region
						region = forlorn_vale_region
						region = esmaria_region
						region = east_dameshead_region
						region = the_borders_region
						superregion = escann_superregion
					}
				}
			}
		}
	}

	mean_time_to_happen = {
		days = 1
	}

	#Adeanic
	option = {
		name = "corinite.3.a"
		trigger = {
			religion = regent_court
		}
		custom_tooltip = crimson_deluge_start_tooltip
	}
	#Corinite
	option = {
		name = "corinite.3.b"
		trigger = {
			religion = corinite
		}
		custom_tooltip = crimson_deluge_start_tooltip
	}
	#Other
	option = {
		name = "corinite.3.c"
		trigger = {
			NOT = { religion_group = cannorian }
		}
		custom_tooltip = crimson_deluge_start_tooltip
	}
}

province_event = {
	id = corinite.4
	title = corinite.4.t
	desc = corinite.4.d
	picture = COMET_SIGHTED_eventPicture
	
	is_triggered_only = yes
	
	trigger = {
	#	has_global_flag = crimson_deluge_is_actively_happening
	#	has_country_modifier = crimson_deluge_country_modifier
	}

	immediate = {
		hidden_effect = {
			clr_global_flag = crimson_deluge_is_actively_happening
			set_global_flag = crimson_deluge_is_over
			alenic_frontier_region = {
				remove_province_modifier = crimson_deluge_province_heavy
				clr_province_flag = flagellants_flag
				clr_province_flag = corinite_firebrand_flag
			}
			forlorn_vale_region = {
				remove_province_modifier = crimson_deluge_province_heavy
				clr_province_flag = flagellants_flag
				clr_province_flag = corinite_firebrand_flag
			}
			esmaria_region = {
				remove_province_modifier = crimson_deluge_province
				clr_province_flag = flagellants_flag
				clr_province_flag = corinite_firebrand_flag
			}
			east_dameshead_region = {
				remove_province_modifier = crimson_deluge_province
				clr_province_flag = flagellants_flag
				clr_province_flag = corinite_firebrand_flag
			}
			the_borders_region = {
				remove_province_modifier = crimson_deluge_province_heavy
				clr_province_flag = flagellants_flag
				clr_province_flag = corinite_firebrand_flag
			}
			escann_superregion = {
				remove_province_modifier = crimson_deluge_province_heavy
				clr_province_flag = flagellants_flag
				clr_province_flag = corinite_firebrand_flag
			}
		}
	}

	mean_time_to_happen = {
		days = 1
	}

	#Adeanic
	option = {
		name = "corinite.4.a"
		trigger = {
			religion = regent_court
		}
		custom_tooltip = crimson_deluge_end_tooltip
	}
	#Corinite
	option = {
		name = "corinite.4.b"
		trigger = {
			religion = corinite
		}
		custom_tooltip = crimson_deluge_end_tooltip
	}
	#Other
	option = {
		name = "corinite.4.c"
		trigger = {
			NOT = { religion_group = cannorian }
		}
		custom_tooltip = crimson_deluge_end_tooltip
	}
}


#Ravelian Convert Resistance
country_event = {
	id = corinite.5
	title = corinite.5.t
	desc = corinite.5.d
	picture = RELIGIOUS_TURMOIL_eventPicture

	
	trigger = {
		religion = corinite
		is_religion_enabled = ravelian
		NOT = { religion = ravelian }
		NOT = { religious_unity = 0.75 }

		NOT = { has_country_flag = had_ravelian_resistance }

		NOT = { 	#aka ravelianism is new
			had_global_flag = { 
				flag = ravelianism_can_be_founded
				days = 7300
			}
		}

		OR = {
			capital_scope = { region = west_castanor_region }
			capital_scope = { region = inner_castanor_region }
			capital_scope = { region = south_castanor_region }
		}
	}

	mean_time_to_happen = {
		months = 24
	}
	
	option = {
		name = corinite.5.a
		
		add_country_modifier = { 
			name = ravelian_resistance
			duration = 7300
		}

		set_country_flag = had_ravelian_resistance
	}

	option = {
		name = corinite.5.b
		
		add_stability_or_adm_power = yes
	}

}

# Pantheonic Council
country_event = {
	id = corinite.100
	title = corinite.100.t
	desc = corinite.100.d
	picture = RELIGION_eventPicture
	
	fire_only_once = yes
	
	trigger = {
		NOT = { has_global_flag = "corins_ascension"}
		is_year = 1445
		capital_scope = {
			OR = {
				superregion = escann_superregion
				area = cursewood_area
				area = whistlevale_area
			}
		}
		religion = regent_court
	}
	
	immediate = {
		set_global_flag = "corins_ascension"
	}
	
	mean_time_to_happen = {
		months = 12
		
		modifier = {
			factor = 0.9
			tag = B02 # Corintar
		}
		modifier = {
			factor = 0.75
			dip = 5
		}
		modifier = {
			factor = 0.75
			adm = 5
		}
		modifier = {
			factor = 0.9
			ruler_has_personality = pious_personality
		}
	}
	
	option = {
		name = corinite.100.a
		ai_chance = { factor = 10 }
		add_prestige = 10
		increase_legitimacy_small_effect = yes 
		custom_tooltip = corin_deity_activated_tt
	}
	option = {
		name = corinite.100.b
		ai_chance = { factor = 100 }
		trigger = { has_regency = no }
		
		add_prestige = 10
		increase_legitimacy_small_effect = yes 
		add_stability_or_adm_power = yes
		
		change_personal_deity = corin
		# custom_tooltip = corin_tooltip
	}
	
	after = {
		hidden_effect = {
			every_country = {
				limit = {
					religion = regent_court
					NOT = { tag = ROOT }
				}
				country_event = {
					id = corinite.101
					days = 0
					random = 150
				}
			}
		}
	}
}

# Pantheonic Council for the rest
country_event = {
	id = corinite.101
	title = corinite.101.t
	desc = corinite.101.d
	picture = RELIGION_eventPicture
	
	is_triggered_only = yes

	option = {
		name = corinite.101.a
		ai_chance = { factor = 60 }
		custom_tooltip = corin_deity_activated_tt
	}
	option = {
		trigger = {
			capital_scope = {
				NOT = {
					superregion = escann_superregion
					area = cursewood_area
					area = whistlevale_area
				}
			}
			has_regency = no
		}
		name = corinite.101.b
		ai_chance = { 
			factor = 4
			modifier = {
				factor = 0.1
				OR = {
					tag = A41 # Damish Temple
					tag = A53 # Ara Temple
					tag = A43 # Ryala Temple
					tag = A10 # Minara Temple
					tag = A74 # Nathalaire
				}
			}
		}
		custom_tooltip = corin_deity_activated_tt
		add_prestige = -10
		change_personal_deity = corin
		# custom_tooltip = corin_tooltip
	}
	option = {
		trigger = {
			capital_scope = {
				OR = {
					superregion = escann_superregion
					area = cursewood_area
					area = whistlevale_area
				}
			}
			has_regency = no
		}
		highlight = yes
		name = corinite.101.c
		ai_chance = { factor = 120 }
		add_prestige = 10
		add_militarised_society = 10
		change_personal_deity = corin
		# custom_tooltip = corin_tooltip
	}

}


#200 - Karma related events

#Crusaders Join The Fight - the corinite crusaders is essentially a paramilitary organization of rabble who fights for corin. you're in a war and they've signed up to join the army
country_event = {
	id = corinite.200
	title = corinite.200.t
	desc = corinite.200.d
	picture = RELIGION_eventPicture
	
	is_triggered_only = yes

	trigger = {
		religion = corinite
		has_dlc = "Common Sense"
		uses_karma = yes

		NOT = { karma = -33 }

		is_at_war = yes

		war_exhaustion = 5
	}


	option = {
		name = corinite.200.a
		ai_chance = { 
			factor = 60 
			modifier = {
				factor = 2
				NOT = { war_score = 50 }
			}
		}
		add_yearly_manpower = 0.5
		add_war_exhaustion = -2.5

		add_karma = -10
	}

	option = {
		name = corinite.200.b
		ai_chance = { factor = 40 }

		add_war_exhaustion = -5

		add_karma = 10
	}

}

#Zealots in Heathen/Heretic Province - in a province where corinites are a minority, they have risen up to try and make themselves a majority 
country_event = {
	id = corinite.201
	title = corinite.201.t
	desc = corinite.201.d
	picture = RELIGION_eventPicture
	
	is_triggered_only = yes

	trigger = {
		religion = corinite
		has_dlc = "Common Sense"
		uses_karma = yes

		NOT = { karma = -33 }

		any_owned_province = {
			NOT = { religion = ROOT }
		}
	}

	immediate = {
		hidden_effect = {
			random_owned_province = {
				limit = { NOT = { religion = ROOT } }
				save_event_target_as = target_province
			}
		}
	}


	option = {
		name = corinite.201.a

		add_karma = -5

		event_target:target_province = {
			add_devastation = 30

			random = {
				chance = 50
				change_religion = corinite
			}
		}
	}
}

#Career Priests Ousted - priests in the church who went to seminaries and join the clergy for a life of theology are being ousted by a more passionate fire and brimstone type who come from a simpler background
country_event = {
	id = corinite.202
	title = corinite.202.t
	desc = corinite.202.d
	picture = RELIGION_eventPicture
	
	is_triggered_only = yes

	trigger = {
		religion = corinite
		has_dlc = "Common Sense"
		uses_karma = yes

		NOT = { karma = -33 }
	}


	option = {
		name = corinite.202.a

		add_karma = -10
	}

	option = {	#We must help defend their positions
		name = corinite.202.b

		add_dip_power = -30
		add_karma = 10
	}

}


#Independent Preachers - corinite preachers who do not subscribe to the official corinite clergy of the country wandering about
country_event = {
	id = corinite.203
	title = corinite.203.t
	desc = corinite.203.d
	picture = RELIGION_eventPicture
	
	is_triggered_only = yes

	trigger = {
		religion = corinite
		has_dlc = "Common Sense"
		uses_karma = yes

		NOT = { has_country_modifier = corinite_independent_preachers }
	}


	option = {
		name = corinite.203.a

		add_karma = 10
		add_prestige = -5
	}

	option = {
		name = corinite.203.b

		add_karma = -10
		add_country_modifier = {
			name = corinite_independent_preachers
			duration = 3650
		}

	}

}

#Wealthy Temples Sacked by Zealots
country_event = {
	id = corinite.204
	title = corinite.204.t
	desc = corinite.204.d
	picture = RELIGION_eventPicture
	
	is_triggered_only = yes

	trigger = {
		religion = corinite
		has_dlc = "Common Sense"
		uses_karma = yes

		karma = 66

		any_owned_province = {
			NOT = { religion = ROOT }
		}
	}

	immediate = {
		random_owned_province = {
			limit = { NOT = { religion = ROOT } }
			save_event_target_as = target_province
		}
	}


	option = {
		name = corinite.204.a

		event_target:target_province = {
			add_devastation = 10

			add_named_unrest = {
				name = wealthy_temples_sacked_by_zealots
				value = 5
			}
		}
	}

}

#Corruption within the Faith - priests getting complacent and not zealous, more political and for themselves
country_event = {
	id = corinite.205
	title = corinite.205.t
	desc = corinite.205.d
	picture = RELIGION_eventPicture
	
	is_triggered_only = yes

	trigger = {
		religion = corinite
		has_dlc = "Common Sense"
		uses_karma = yes

		karma = 66

		NOT = { corruption = 2 }
	}


	option = {
		name = corinite.205.a

		add_corruption = 1
	}

	option = {
		name = corinite.205.b

		add_karma = -10
		add_mil_power = -50
	}

}

#Community Around Faith	- as we are all about protection AND we are all 100% corinite, the people have rallied around the temples as a bastion of the faith throughout the country
country_event = {
	id = corinite.206
	title = corinite.206.t
	desc = corinite.206.d
	picture = RELIGION_eventPicture
	
	is_triggered_only = yes

	trigger = {
		religion = corinite
		has_dlc = "Common Sense"
		uses_karma = yes

		karma = 66

		religious_unity = 1

		NOT = { stability = 3 }
	}


	option = {
		name = corinite.206.a

		add_stability = 1
	}

}


#Donations to the Court	- since you're such a ideal ruler, the common people have pooled together money to help you in your endeavours
country_event = {
	id = corinite.207
	title = corinite.207.t
	desc = corinite.207.d
	picture = RELIGION_eventPicture
	
	is_triggered_only = yes

	trigger = {
		religion = corinite
		has_dlc = "Common Sense"
		uses_karma = yes

		karma = 33
		NOT = { karma = 66 }

	}


	option = {
		name = corinite.207.a

		add_years_of_income = 1
	}
	option = {
		name = corinite.207.b

		add_prestige = 5
		add_karma = 10
	}
}
# I wasn't sure how to do modifiers, can you toss in minus unrest for a couple years on .b above, if that's balanced enough?
#Cult of Personality - a super rare event, but because you're so awesome and have established good absolutism, this spreads to the faith as well. After all, only just rulers rule in Corinite countries, so you must be just, right?
country_event = {
	id = corinite.208
	title = corinite.208.t
	desc = corinite.208.d
	picture = RELIGION_eventPicture
	
	is_triggered_only = yes

	trigger = {
		religion = corinite
		has_dlc = "Common Sense"
		uses_karma = yes

		karma = 33
		NOT = { karma = 66 }

		absolutism = 75
		stability = 3
		prestige = 100

		NOT = { has_ruler_modifier = corinite_cult_of_personality }

	}


	option = {
		name = corinite.208.a

		add_ruler_modifier = {
			name = corinite_cult_of_personality
			duration = -1
		}
	}

}

#Defensive Dogma - during wartime, because of your karma your forces have naturally adopted this stance
country_event = {
	id = corinite.209
	title = corinite.209.t
	desc = corinite.209.d
	picture = RELIGION_eventPicture
	
	is_triggered_only = yes

	trigger = {
		religion = corinite
		has_dlc = "Common Sense"
		uses_karma = yes

		karma = 66

		is_at_war = yes

		NOT = { has_country_modifier = corinite_defensive_war_dogma }

	}


	option = {
		name = corinite.209.a

		add_country_modifier = {
			name = corinite_defensive_war_dogma
			duration = 3650
		}
	}

}

#Offensive Dogma
country_event = {
	id = corinite.210
	title = corinite.210.t
	desc = corinite.210.d
	picture = RELIGION_eventPicture
	
	is_triggered_only = yes

	trigger = {
		religion = corinite
		has_dlc = "Common Sense"
		uses_karma = yes

		NOT = { karma = 33 }

		is_at_war = yes

		NOT = { has_country_modifier = corinite_offensive_war_dogma }

	}


	option = {
		name = corinite.210.a

		add_country_modifier = {
			name = corinite_offensive_war_dogma
			duration = 3650
		}
	}

}

#Divine Inspiration - both dogma
country_event = {
	id = corinite.211
	title = corinite.211.t
	desc = corinite.211.d
	picture = RELIGION_eventPicture
	
	is_triggered_only = yes

	trigger = {
		religion = corinite
		has_dlc = "Common Sense"
		uses_karma = yes

		karma = 33
		NOT = { karma = 66 }

		is_at_war = yes

		NOT = { has_country_modifier = corinite_divine_inspiration }

	}


	option = {
		name = corinite.211.a

		add_country_modifier = {
			name = corinite_divine_inspiration
			duration = 3650
		}
	}

}